{
  "app": "npx ts-node bin/deploy-to-aws.ts",
  "context": {
    "ArchiverImageUri": "registry.gitlab.com/shardus/archive/archive-server:latest",
    "ArchiverIpAddrEnvVar": "ARCHIVER_IP",
    "MonitorImageUri": "registry.gitlab.com/shardus/monitor-server:latest",
    "AppImageUri": "registry.gitlab.com/shardeum/server:latest",
    "AppIpAddrEnvVar": "APP_IP",
    "AppSeedlistEnvVar": "APP_SEEDLIST",
    "AppMonitorEnvVar": "APP_MONITOR"
  }
}
